digraph G {
//    splines="FALSE";

    /* Heat sinks */
    W1 [label="Wall 1 (liner)", shape="box"]
    W2 [label="Wall 2", shape="box"]
    W3 [label="Wall 3", shape="box"]
    W4 [label="Wall 4", shape="box"]

    S0 [label="Sodium Crust", shape="box"]

    S1 [label="Sodium 1", shape="box"]
    S2 [label="Sodium 2", shape="box"]
    S3 [label="Sodium 3", shape="box"]
    S4 [label="Sodium 4", shape="box"]

    F1 [label="Floor 1 (liner)", shape="box"]
    F2 [label="Floor 2", shape="box"]
    F3 [label="Floor 3", shape="box"]
    F4 [label="Floor 4", shape="box"]

    GAS [label="Gas", shape="ellipse"]
    ENV [label="Ambient", shape="ellipse"]

    /* External sources/sinks */
    EXT_FIRE [label="Sodium\npool fire", shape="hexagon"]
    EXT_S1 [label="Sodium\nflow 1", shape="hexagon"]
    EXT_S2 [label="Sodium\nflow 2", shape="hexagon"]
    EXT_S3 [label="Sodium\nflow 3", shape="hexagon"]
    EXT_S4 [label="Sodium\nflow 4", shape="hexagon"]
    EXT_LEAK [label="Gas\nin/outleakage", shape="hexagon"]
    EXT_EXHAUST [label="Gas\nsupply/exhaust", shape="hexagon"]

    /* Heat transfer paths - convection */
    S0 -> GAS [label="QCONV1", style="dashed"]
    GAS -> W1 [label="QCONV2", style="dashed"]

    /* Heat transfer paths - radiation */
    S0 -> W1 [label="QROD", style="dotted"]
    F1 -> F2 [label="QRAD1", style="dotted"]
    W1 -> W2 [label="QRAD2", style="dotted"]
    S0 -> GAS [label="QRAD3", style="dotted"]

    /* Heat transfer paths - conduction */
    S4 -> F1 [label="QCOND1", style="solid"]

    F1 -> F2 [label="QCOND2", style="solid"]
    F2 -> F3 [label="QCOND3", style="solid"]
    F3 -> F4 [label="QCOND4", style="solid"]
    F4 -> ENV [label="QCOND5", style="solid"]

    W1 -> W2 [label="QCOND6", style="solid"]
    W2 -> W3 [label="QCOND7", style="solid"]
    W3 -> W4 [label="QCOND8", style="solid"]
    W4 -> ENV [label="QCOND9", style="solid"]

    S0 -> S1 [label="QCOND10", style="solid"]
    S1 -> S2 [label="QCOND11", style="solid"]
    S2 -> S3 [label="QCOND12", style="solid"]
    S3 -> S4 [label="QCOND13", style="solid"]

    /* Heat transfer paths - external source/sinks */
    EXT_FIRE -> S0  [label="QFIRE",    style="solid", penwidth="2"]
    EXT_S1   -> S1  [label="QMASS_S1", style="solid", penwidth="2", dir="both"]
    EXT_S2   -> S2  [label="QMASS_S2", style="solid", penwidth="2", dir="both"]
    EXT_S3   -> S3  [label="QMASS_S3", style="solid", penwidth="2", dir="both"]
    EXT_S4   -> S4  [label="QMASS_S4", style="solid", penwidth="2", dir="both"]
    EXT_LEAK -> GAS [label="QLEAK",    style="solid", penwidth="2", dir="both"]
    EXT_EXHAUST -> GAS [label="QEXHAUST", style="solid", penwidth="2", dir="both"]

    /* Ranks */
    /*
    { rank=same; shortName; };
    */
}